Lab 3: COVID-19
…
Question 4

latest_date <- max(pop_and_covid$date, na.rm = TRUE)

pop_and_covid %>%
  filter(date >= (latest_date - 13)) 

# A tibble: 896 × 27
   date       county     state   fips   cases deaths new_cases new_deaths STNAME
   <date>     <chr>      <chr>   <chr>  <dbl>  <dbl>     <dbl>      <dbl> <chr> 
 1 2022-04-30 Adams      Colora… 08001 136577   1351         0          0 Color…
 2 2022-04-30 Alamosa    Colora… 08003   4538     61         0          0 Color…
 3 2022-04-30 Arapahoe   Colora… 08005 156486   1252         0          0 Color…
 4 2022-04-30 Archuleta  Colora… 08007   2907     16         0          0 Color…
 5 2022-04-30 Baca       Colora… 08009    848      8         0          0 Color…
 6 2022-04-30 Bent       Colora… 08011   2545     47         0          0 Color…
 7 2022-04-30 Boulder    Colora… 08013  65998    389         0          0 Color…
 8 2022-04-30 Broomfield Colora… 08014  13663    115         0          0 Color…
 9 2022-04-30 Chaffee    Colora… 08015   4676     44         0          0 Color…
10 2022-04-30 Cheyenne   Colora… 08017    322      9         0          0 Color…
# ℹ 886 more rows
# ℹ 18 more variables: CTYNAME <chr>, POPESTIMATE2021 <dbl>, NPOPCHG2021 <dbl>,
#   BIRTHS2021 <dbl>, DEATHS2021 <dbl>, NATURALCHG2021 <dbl>,
#   INTERNATIONALMIG2021 <dbl>, DOMESTICMIG2021 <dbl>, NETMIG2021 <dbl>,
#   RESIDUAL2021 <dbl>, GQESTIMATES2021 <dbl>, RBIRTH2021 <dbl>,
#   RDEATH2021 <dbl>, RNATURALCHG2021 <dbl>, RINTERNATIONALMIG2021 <dbl>,
#   RDOMESTICMIG2021 <dbl>, RNETMIG2021 <dbl>, cumulative_cases <dbl>
…
watchlist_count <- last_14_days %>% 
  filter(cases_per_100k>100) %>% 
  nrow()

top_5_counties <- last_14_days %>% 
  slice_max(order_by = cases_per_100k, n = 5)

print(last_14_days)

# A tibble: 65 × 4
   county     total_new_cases_14d population cases_per_100k
   <chr>                    <dbl>      <dbl>          <dbl>
 1 Adams                    0.263     523544         0.0502
 2 Alamosa                  0.275      16579         1.66  
 3 Arapahoe                 0.241     656855         0.0367
 4 Archuleta                0.212      13806         1.53  
 5 Baca                     0.245       3490         7.01  
 6 Bent                     0.479       5339         8.98  
 7 Boulder                  0.209     327084         0.0640
 8 Broomfield               0.186      75411         0.246 
 9 Chaffee                  0.240      19741         1.22  
10 Cheyenne                 0.186       1719        10.8   
# ℹ 55 more rows
…
